module gitlab.com/kolesaev/network-policy-worker

go 1.17

require (
	github.com/hashicorp/vault/api v1.7.2
	github.com/spf13/cobra v1.5.0
	github.com/spf13/viper v1.12.0
	k8s.io/client-go v0.24.3
)

require (
	cloud.google.com/go/compute v1.6.1 // indirect
	github.com/Azure/go-autorest v14.2.0+incompatible // indirect
	github.com/Azure/go-autorest/autorest v0.11.18 // indirect
	github.com/Azure/go-autorest/autorest/adal v0.9.13 // indirect
	github.com/Azure/go-autorest/autorest/date v0.3.0 // indirect
	github.com/Azure/go-autorest/logger v0.2.1 // indirect
	github.com/Azure/go-autorest/tracing v0.6.0 // indirect
	github.com/PuerkitoBio/purell v1.1.1 // indirect
	github.com/PuerkitoBio/urlesc v0.0.0-20170810143723-de5bf2ad4578 // indirect
	github.com/armon/go-metrics v0.3.10 // indirect
	github.com/armon/go-radix v1.0.0 // indirect
	github.com/cenkalti/backoff/v3 v3.0.0 // indirect
	github.com/davecgh/go-spew v1.1.1 // indirect
	github.com/emicklei/go-restful v2.9.5+incompatible // indirect
	github.com/fatih/color v1.13.0 // indirect
	github.com/form3tech-oss/jwt-go v3.2.3+incompatible // indirect
	github.com/fsnotify/fsnotify v1.5.4 // indirect
	github.com/go-logr/logr v1.2.0 // indirect
	github.com/go-openapi/jsonpointer v0.19.5 // indirect
	github.com/go-openapi/jsonreference v0.19.5 // indirect
	github.com/go-openapi/swag v0.19.14 // indirect
	github.com/gogo/protobuf v1.3.2 // indirect
	github.com/golang/protobuf v1.5.2 // indirect
	github.com/golang/snappy v0.0.4 // indirect
	github.com/google/gnostic v0.5.7-v3refs // indirect
	github.com/google/gofuzz v1.1.0 // indirect
	github.com/hashicorp/errwrap v1.1.0 // indirect
	github.com/hashicorp/go-cleanhttp v0.5.2 // indirect
	github.com/hashicorp/go-hclog v1.2.0 // indirect
	github.com/hashicorp/go-immutable-radix v1.3.1 // indirect
	github.com/hashicorp/go-multierror v1.1.1 // indirect
	github.com/hashicorp/go-plugin v1.4.3 // indirect
	github.com/hashicorp/go-retryablehttp v0.6.6 // indirect
	github.com/hashicorp/go-rootcerts v1.0.2 // indirect
	github.com/hashicorp/go-secure-stdlib/mlock v0.1.1 // indirect
	github.com/hashicorp/go-secure-stdlib/parseutil v0.1.6 // indirect
	github.com/hashicorp/go-secure-stdlib/strutil v0.1.2 // indirect
	github.com/hashicorp/go-sockaddr v1.0.2 // indirect
	github.com/hashicorp/go-uuid v1.0.2 // indirect
	github.com/hashicorp/go-version v1.2.0 // indirect
	github.com/hashicorp/golang-lru v0.5.4 // indirect
	github.com/hashicorp/hcl v1.0.0 // indirect
	github.com/hashicorp/vault/sdk v0.5.1 // indirect
	github.com/hashicorp/yamux v0.0.0-20180604194846-3520598351bb // indirect
	github.com/imdario/mergo v0.3.5 // indirect
	github.com/inconshreveable/mousetrap v1.0.0 // indirect
	github.com/josharian/intern v1.0.0 // indirect
	github.com/json-iterator/go v1.1.12 // indirect
	github.com/magiconair/properties v1.8.6 // indirect
	github.com/mailru/easyjson v0.7.6 // indirect
	github.com/mattn/go-colorable v0.1.12 // indirect
	github.com/mattn/go-isatty v0.0.14 // indirect
	github.com/mitchellh/copystructure v1.0.0 // indirect
	github.com/mitchellh/go-homedir v1.1.0 // indirect
	github.com/mitchellh/go-testing-interface v1.0.0 // indirect
	github.com/mitchellh/mapstructure v1.5.0 // indirect
	github.com/mitchellh/reflectwalk v1.0.0 // indirect
	github.com/modern-go/concurrent v0.0.0-20180306012644-bacd9c7ef1dd // indirect
	github.com/modern-go/reflect2 v1.0.2 // indirect
	github.com/munnerz/goautoneg v0.0.0-20191010083416-a7dc8b61c822 // indirect
	github.com/oklog/run v1.0.0 // indirect
	github.com/pelletier/go-toml v1.9.5 // indirect
	github.com/pelletier/go-toml/v2 v2.0.1 // indirect
	github.com/pierrec/lz4 v2.5.2+incompatible // indirect
	github.com/ryanuber/go-glob v1.0.0 // indirect
	github.com/spf13/afero v1.8.2 // indirect
	github.com/spf13/cast v1.5.0 // indirect
	github.com/spf13/jwalterweatherman v1.1.0 // indirect
	github.com/spf13/pflag v1.0.5 // indirect
	github.com/subosito/gotenv v1.3.0 // indirect
	go.uber.org/atomic v1.9.0 // indirect
	golang.org/x/crypto v0.0.0-20220411220226-7b82a4e95df4 // indirect
	golang.org/x/net v0.0.0-20220520000938-2e3eb7b945c2 // indirect
	golang.org/x/oauth2 v0.0.0-20220411215720-9780585627b5 // indirect
	golang.org/x/sys v0.0.0-20220520151302-bc2c85ada10a // indirect
	golang.org/x/term v0.0.0-20210927222741-03fcf44c2211 // indirect
	golang.org/x/text v0.3.7 // indirect
	golang.org/x/time v0.0.0-20220210224613-90d013bbcef8 // indirect
	google.golang.org/appengine v1.6.7 // indirect
	google.golang.org/genproto v0.0.0-20220519153652-3a47de7e79bd // indirect
	google.golang.org/grpc v1.46.2 // indirect
	google.golang.org/protobuf v1.28.0 // indirect
	gopkg.in/inf.v0 v0.9.1 // indirect
	gopkg.in/ini.v1 v1.66.4 // indirect
	gopkg.in/square/go-jose.v2 v2.5.1 // indirect
	gopkg.in/yaml.v2 v2.4.0 // indirect
	gopkg.in/yaml.v3 v3.0.0 // indirect
	k8s.io/api v0.24.3 // indirect
	k8s.io/apimachinery v0.24.3 // indirect
	k8s.io/klog/v2 v2.60.1 // indirect
	k8s.io/kube-openapi v0.0.0-20220328201542-3ee0da9b0b42 // indirect
	k8s.io/utils v0.0.0-20220713171938-56c0de1e6f5e // indirect
	sigs.k8s.io/json v0.0.0-20211208200746-9f7c6b3444d2 // indirect
	sigs.k8s.io/structured-merge-diff/v4 v4.2.1 // indirect
	sigs.k8s.io/yaml v1.2.0 // indirect
)
